# This file uses centimeters as units for non-parametric coordinates.

g default
v -8.288445 0.088073 -7.662039
v -10.425778 -0.030170 -4.385196
v -3.128464 0.137050 -9.019350
v 8.288445 0.088073 -7.662039
v 3.128464 0.137050 -9.019350
v 10.425778 -0.030170 -4.385196
v -8.288445 -0.291791 2.865098
v -3.128464 -0.340769 4.222408
v -10.425778 -0.173547 -0.411744
v 8.288445 -0.291791 2.865098
v 10.425778 -0.173547 -0.411744
v 3.128464 -0.340769 4.222408
v 8.288445 1.118710 -4.343739
v 3.128464 1.118711 -4.343743
v -3.128464 1.118711 -4.343743
v -8.288445 1.118710 -4.343739
v 8.288445 0.975331 -0.370287
v 3.128464 0.975331 -0.370289
v -3.128464 0.975331 -0.370289
v -8.288445 0.975331 -0.370287
v -8.288445 -0.030170 -4.385192
v -3.128464 -0.030170 -4.385196
v 3.128464 -0.030170 -4.385196
v 8.288445 -0.030170 -4.385192
v 8.288445 -0.173548 -0.411745
v 3.128464 -0.173548 -0.411748
v -3.128464 -0.173548 -0.411748
v -8.288445 -0.173548 -0.411745
v -3.128464 -0.291791 2.865098
v 3.128464 -0.291791 2.865098
v 3.128464 0.088073 -7.662039
v -3.128464 0.088073 -7.662039
v 3.128464 1.236952 -7.620585
v -3.128464 1.236952 -7.620585
v -3.128464 0.857088 2.906556
v 3.128464 0.857088 2.906556
v -3.128464 0.711547 -8.998619
v -3.054088 1.265204 -8.403509
v 3.128464 0.711547 -8.998619
v 3.054088 1.265204 -8.403509
v -3.128464 0.233728 4.243141
v -3.054088 0.828838 3.689482
v 3.128464 0.233728 4.243141
v 3.054088 0.828838 3.689482
v -10.425778 0.544328 -4.364465
v -9.851023 1.112552 -4.173070
v -10.425778 0.400950 -0.391012
v -9.851022 0.981490 -0.540956
v 10.425778 0.544328 -4.364465
v 9.851023 1.112552 -4.173070
v 10.425778 0.400947 -0.391012
v 9.851022 0.981490 -0.540956
v -8.288445 0.662570 -7.641308
v -7.927914 1.218943 -7.121473
v 8.288445 0.662570 -7.641308
v 7.927914 1.218943 -7.121473
v -8.288445 0.282706 2.885830
v -7.927914 0.875099 2.407444
v 8.288445 0.282706 2.885830
v 7.927914 0.875099 2.407444
v 2.290933 -0.325580 4.127740
v 2.290933 -0.158185 3.863418
v 2.290933 0.082697 3.663762
v 2.290933 0.373487 3.548314
v 2.290933 0.685720 3.528375
v 2.290933 0.988832 3.605898
v 2.290933 1.253154 3.773293
v 2.290933 1.452810 4.014175
v 2.290933 1.568259 4.304964
v 2.290933 1.588198 4.617198
v 2.290933 1.510675 4.920310
v 2.290933 1.343280 5.184632
v 2.290933 1.102398 5.384288
v 2.290933 0.811608 5.499737
v 2.290933 0.499375 5.519675
v 2.290933 0.196262 5.442154
v 2.290933 -0.068059 5.274758
v 2.290933 -0.267716 5.033876
v 2.290933 -0.383163 4.743086
v 2.290933 -0.403102 4.430853
v 4.290933 -0.325580 4.127740
v 4.290933 -0.158185 3.863418
v 4.290933 0.082697 3.663762
v 4.290933 0.373487 3.548314
v 4.290933 0.685720 3.528375
v 4.290933 0.988832 3.605898
v 4.290933 1.253154 3.773293
v 4.290933 1.452810 4.014175
v 4.290933 1.568259 4.304964
v 4.290933 1.588198 4.617198
v 4.290933 1.510675 4.920310
v 4.290933 1.343280 5.184632
v 4.290933 1.102398 5.384288
v 4.290933 0.811608 5.499737
v 4.290933 0.499375 5.519675
v 4.290933 0.196262 5.442154
v 4.290933 -0.068059 5.274758
v 4.290933 -0.267716 5.033876
v 4.290933 -0.383163 4.743086
v 4.290933 -0.403102 4.430853
v 2.290933 0.592548 4.524025
v 4.290933 0.592548 4.524025
v -3.635705 -0.325580 4.127740
v -3.635705 -0.158185 3.863418
v -3.635705 0.082697 3.663762
v -3.635705 0.373487 3.548314
v -3.635705 0.685720 3.528375
v -3.635705 0.988832 3.605898
v -3.635705 1.253154 3.773293
v -3.635705 1.452810 4.014175
v -3.635705 1.568259 4.304964
v -3.635705 1.588198 4.617198
v -3.635705 1.510675 4.920310
v -3.635705 1.343280 5.184632
v -3.635705 1.102398 5.384288
v -3.635705 0.811608 5.499737
v -3.635705 0.499375 5.519675
v -3.635705 0.196262 5.442154
v -3.635705 -0.068059 5.274758
v -3.635705 -0.267716 5.033876
v -3.635705 -0.383163 4.743086
v -3.635705 -0.403102 4.430853
v -1.635705 -0.325580 4.127740
v -1.635705 -0.158185 3.863418
v -1.635705 0.082697 3.663762
v -1.635705 0.373487 3.548314
v -1.635705 0.685720 3.528375
v -1.635705 0.988832 3.605898
v -1.635705 1.253154 3.773293
v -1.635705 1.452810 4.014175
v -1.635705 1.568259 4.304964
v -1.635705 1.588198 4.617198
v -1.635705 1.510675 4.920310
v -1.635705 1.343280 5.184632
v -1.635705 1.102398 5.384288
v -1.635705 0.811608 5.499737
v -1.635705 0.499375 5.519675
v -1.635705 0.196262 5.442154
v -1.635705 -0.068059 5.274758
v -1.635705 -0.267716 5.033876
v -1.635705 -0.383163 4.743086
v -1.635705 -0.403102 4.430853
v -3.635705 0.592548 4.524025
v -1.635705 0.592548 4.524025
vt 0.214838 0.361397
vt 0.197187 0.376126
vt 0.169706 0.343335
vt 0.187373 0.328592
vt 0.274875 0.555995
vt 0.223272 0.599296
vt 0.200792 0.571448
vt 0.251450 0.529168
vt 0.223619 0.496035
vt 0.173160 0.538138
vt 0.149980 0.511091
vt 0.200886 0.468415
vt 0.158337 0.606175
vt 0.131355 0.574200
vt 0.293223 0.493137
vt 0.266105 0.461278
vt 0.014677 0.472726
vt 0.032344 0.457983
vt 0.059690 0.490894
vt 0.042038 0.505624
vt 0.075042 0.422350
vt 0.102333 0.455310
vt 0.154545 0.411711
vt 0.127009 0.378969
vt 0.219869 0.403151
vt 0.187008 0.449585
vt 0.177420 0.438562
vt 0.133813 0.494063
vt 0.124672 0.482642
vt 0.082223 0.518053
vt 0.009766 0.430865
vt 0.043111 0.383999
vt 0.052470 0.395225
vt 0.104366 0.351908
vt 0.094997 0.340690
vt 0.147070 0.316269
vt 0.190248 0.454802
vt 0.194899 0.462313
vt 0.145022 0.504137
vt 0.138408 0.498190
vt 0.244327 0.432226
vt 0.244647 0.441198
vt 0.115353 0.549540
vt 0.106577 0.547666
vt 0.286682 0.568711
vt 0.279940 0.562878
vt 0.309321 0.517716
vt 0.318100 0.519589
vt 0.233667 0.613099
vt 0.229148 0.605471
vt 0.180010 0.635314
vt 0.179695 0.626341
vt 0.285031 0.444360
vt 0.280050 0.451892
vt 0.313032 0.477422
vt 0.304821 0.480991
vt 0.111531 0.589929
vt 0.119742 0.586360
vt 0.144408 0.615548
vt 0.139425 0.623079
vt 0.100657 0.546338
vt 0.243990 0.426187
vt 0.105967 0.592413
vt 0.288369 0.439250
vt 0.136089 0.628189
vt 0.318596 0.474939
vt 0.180345 0.641355
vt 0.324021 0.520915
vt 0.236806 0.618408
vt 0.291377 0.572750
vt 0.958977 0.394041
vt 0.958575 0.391555
vt 0.974469 0.388983
vt 0.974872 0.391470
vt 0.958173 0.389068
vt 0.974067 0.386497
vt 0.957771 0.386582
vt 0.973665 0.384011
vt 0.957368 0.384095
vt 0.973263 0.381524
vt 0.956966 0.381609
vt 0.972860 0.379038
vt 0.956564 0.379123
vt 0.972458 0.376551
vt 0.956162 0.376636
vt 0.972056 0.374065
vt 0.955759 0.374150
vt 0.971654 0.371579
vt 0.955357 0.371663
vt 0.971251 0.369092
vt 0.954955 0.369177
vt 0.970849 0.366606
vt 0.954553 0.366691
vt 0.970447 0.364119
vt 0.954150 0.364204
vt 0.970045 0.361633
vt 0.953748 0.361718
vt 0.969642 0.359147
vt 0.953346 0.359231
vt 0.969240 0.356660
vt 0.952944 0.356745
vt 0.968838 0.354173
vt 0.952541 0.354259
vt 0.968436 0.351687
vt 0.952139 0.351772
vt 0.968033 0.349201
vt 0.951737 0.349286
vt 0.967631 0.346715
vt 0.951335 0.346799
vt 0.967229 0.344228
vt 0.950932 0.344313
vt 0.966826 0.341741
vt 0.949781 0.342072
vt 0.943284 0.346826
vt 0.947994 0.340297
vt 0.945747 0.339161
vt 0.943258 0.338776
vt 0.940771 0.339178
vt 0.938530 0.340329
vt 0.936756 0.342115
vt 0.935619 0.344364
vt 0.935234 0.346853
vt 0.935636 0.349339
vt 0.936787 0.351579
vt 0.938574 0.353355
vt 0.940822 0.354490
vt 0.943311 0.354876
vt 0.945797 0.354474
vt 0.948038 0.353323
vt 0.949813 0.351536
vt 0.950949 0.349288
vt 0.967212 0.339252
vt 0.974877 0.341715
vt 0.968348 0.337005
vt 0.970123 0.335218
vt 0.972364 0.334067
vt 0.974851 0.333664
vt 0.977340 0.334050
vt 0.979587 0.335187
vt 0.981374 0.336961
vt 0.982525 0.339202
vt 0.982928 0.341688
vt 0.982541 0.344177
vt 0.981405 0.346425
vt 0.979630 0.348212
vt 0.977390 0.349363
vt 0.974904 0.349765
vt 0.972415 0.349380
vt 0.970166 0.348243
vt 0.968380 0.346469
vt 0.966080 0.070080
vt 0.965687 0.067592
vt 0.981591 0.065083
vt 0.981984 0.067570
vt 0.965295 0.065104
vt 0.981199 0.062594
vt 0.964902 0.062616
vt 0.980806 0.060106
vt 0.964510 0.060128
vt 0.980414 0.057618
vt 0.964117 0.057640
vt 0.980021 0.055130
vt 0.963724 0.055152
vt 0.979629 0.052642
vt 0.963332 0.052664
vt 0.979236 0.050154
vt 0.962939 0.050176
vt 0.978844 0.047667
vt 0.962547 0.047688
vt 0.978451 0.045179
vt 0.962154 0.045200
vt 0.978059 0.042691
vt 0.961762 0.042712
vt 0.977666 0.040203
vt 0.961369 0.040224
vt 0.977274 0.037715
vt 0.960977 0.037736
vt 0.976881 0.035227
vt 0.960584 0.035248
vt 0.976488 0.032739
vt 0.960192 0.032760
vt 0.976096 0.030251
vt 0.959799 0.030272
vt 0.975703 0.027763
vt 0.959407 0.027784
vt 0.975311 0.025275
vt 0.959014 0.025296
vt 0.974918 0.022787
vt 0.958622 0.022808
vt 0.974526 0.020299
vt 0.958229 0.020321
vt 0.974134 0.017811
vt 0.957087 0.018075
vt 0.950571 0.022803
vt 0.955307 0.016293
vt 0.953064 0.015148
vt 0.950576 0.014753
vt 0.948088 0.015145
vt 0.945843 0.016288
vt 0.944061 0.018068
vt 0.942916 0.020311
vt 0.942521 0.022799
vt 0.942913 0.025287
vt 0.944056 0.027531
vt 0.945835 0.029314
vt 0.948079 0.030458
vt 0.950566 0.030854
vt 0.953054 0.030461
vt 0.955299 0.029319
vt 0.957081 0.027539
vt 0.958226 0.025296
vt 0.974529 0.015323
vt 0.982184 0.017816
vt 0.975674 0.013080
vt 0.977456 0.011300
vt 0.979701 0.010158
vt 0.982189 0.009766
vt 0.984676 0.010161
vt 0.986920 0.011306
vt 0.988700 0.013088
vt 0.989842 0.015333
vt 0.990234 0.017821
vt 0.989839 0.020308
vt 0.988694 0.022552
vt 0.986912 0.024332
vt 0.984667 0.025474
vt 0.982179 0.025866
vt 0.979691 0.025471
vt 0.977448 0.024326
vt 0.975668 0.022544
vn -0.000001 -0.999350 -0.036061
vn -0.000001 -0.999350 -0.036061
vn -0.000001 -0.999350 -0.036061
vn -0.000001 -0.999350 -0.036061
vn 0.000000 0.999350 0.036061
vn 0.000000 0.999350 0.036061
vn 0.000000 0.999350 0.036061
vn 0.000000 0.999350 0.036061
vn 0.000000 0.999350 0.036061
vn 0.000000 0.999350 0.036061
vn 0.000000 0.999350 0.036061
vn 0.000000 0.999350 0.036061
vn 0.000000 0.999350 0.036061
vn 0.000000 0.999350 0.036061
vn 0.000000 0.999350 0.036061
vn 0.000000 0.999350 0.036061
vn 0.000000 0.999350 0.036061
vn 0.000000 0.999350 0.036061
vn 0.000000 0.999350 0.036061
vn 0.000000 0.999350 0.036061
vn 0.000000 0.999350 0.036061
vn 0.000000 0.999350 0.036061
vn 0.000000 0.999350 0.036061
vn 0.000000 0.999350 0.036061
vn 0.000000 -0.999350 -0.036061
vn 0.000000 -0.999350 -0.036061
vn 0.000000 -0.999350 -0.036061
vn 0.000000 -0.999350 -0.036061
vn 0.000000 -0.999350 -0.036061
vn 0.000000 -0.999350 -0.036061
vn 0.000000 -0.999350 -0.036061
vn 0.000000 -0.999350 -0.036061
vn 0.000000 -0.999350 -0.036061
vn 0.000000 -0.999350 -0.036061
vn 0.000000 -0.999350 -0.036061
vn 0.000000 -0.999350 -0.036061
vn 0.000000 -0.999350 -0.036061
vn 0.000000 -0.999350 -0.036061
vn 0.000000 -0.999350 -0.036061
vn 0.000000 -0.999350 -0.036061
vn 0.000000 -0.999350 -0.036061
vn 0.000000 -0.999350 -0.036061
vn 0.000000 -0.999350 -0.036061
vn 0.000000 -0.999350 -0.036061
vn 0.000000 -0.999350 -0.036061
vn 0.000000 -0.999350 -0.036061
vn 0.000000 -0.999350 -0.036061
vn 0.000000 -0.999350 -0.036061
vn 0.000000 -0.999350 -0.036061
vn 0.000000 -0.999350 -0.036061
vn 0.000000 -0.999350 -0.036061
vn 0.000000 -0.999350 -0.036061
vn 0.000000 -0.999350 -0.036061
vn 0.000000 -0.999350 -0.036061
vn 0.000000 -0.999350 -0.036061
vn 0.000000 -0.999350 -0.036061
vn 0.000000 -0.999350 -0.036061
vn 0.000000 -0.999350 -0.036061
vn 0.000000 -0.999350 -0.036061
vn 0.000000 -0.999350 -0.036061
vn 0.000000 -0.999350 -0.036061
vn 0.000000 -0.999350 -0.036061
vn 0.000000 -0.999350 -0.036061
vn 0.000000 -0.999350 -0.036061
vn 0.000000 -0.999350 -0.036061
vn 0.000000 -0.999350 -0.036061
vn 0.000000 -0.999350 -0.036061
vn 0.000000 -0.999350 -0.036061
vn 0.000000 -0.999350 -0.036061
vn 0.000000 -0.999350 -0.036061
vn 0.000000 -0.999350 -0.036061
vn 0.000000 -0.999350 -0.036061
vn 0.000000 -0.999350 -0.036061
vn 0.000000 -0.999350 -0.036061
vn 0.000000 -0.999350 -0.036061
vn 0.000000 -0.999350 -0.036061
vn 0.000000 -0.999350 -0.036061
vn 0.000000 -0.999350 -0.036061
vn 0.000000 -0.999350 -0.036061
vn 0.000000 -0.999350 -0.036061
vn 0.000000 -0.999350 -0.036061
vn 0.000000 -0.999350 -0.036061
vn 0.000000 -0.999350 -0.036061
vn 0.000000 -0.999350 -0.036061
vn 0.000000 -0.999350 -0.036061
vn 0.000000 -0.999350 -0.036061
vn 0.000000 -0.999350 -0.036061
vn 0.000000 -0.999350 -0.036061
vn 0.000000 -0.999350 -0.036061
vn 0.000000 -0.999350 -0.036061
vn 0.000000 -0.999350 -0.036061
vn 0.000000 -0.999350 -0.036061
vn 0.000000 -0.999350 -0.036061
vn 0.000000 -0.999350 -0.036061
vn 0.000000 -0.999350 -0.036061
vn 0.000000 -0.999350 -0.036061
vn -0.082460 0.734771 -0.673284
vn -0.082460 0.734771 -0.673284
vn 0.082460 0.734771 -0.673284
vn 0.082460 0.734771 -0.673284
vn -0.082460 0.734771 -0.673284
vn -0.082460 0.734771 -0.673284
vn -0.363779 0.750824 -0.551297
vn -0.363779 0.750824 -0.551297
vn 0.082460 0.734771 -0.673284
vn 0.082460 0.734771 -0.673284
vn 0.363779 0.750824 -0.551297
vn 0.363780 0.750824 -0.551297
vn -0.082460 0.684334 0.724491
vn -0.082460 0.684334 0.724491
vn -0.363779 0.709138 0.603977
vn -0.363778 0.709137 0.603978
vn -0.082460 0.684334 0.724491
vn -0.082460 0.684334 0.724491
vn 0.082460 0.684334 0.724491
vn 0.082460 0.684334 0.724491
vn 0.082460 0.684334 0.724491
vn 0.082460 0.684334 0.724491
vn 0.363779 0.709137 0.603978
vn 0.363779 0.709137 0.603978
vn -0.664012 0.728453 -0.168654
vn -0.664012 0.728453 -0.168655
vn -0.363779 0.750824 -0.551297
vn -0.363779 0.750824 -0.551297
vn -0.664012 0.728453 -0.168655
vn -0.664012 0.728453 -0.168654
vn -0.664012 0.714403 0.220719
vn -0.664011 0.714404 0.220719
vn -0.664011 0.714404 0.220719
vn -0.664012 0.714403 0.220719
vn -0.363778 0.709137 0.603978
vn -0.363779 0.709138 0.603977
vn 0.664012 0.728453 -0.168654
vn 0.664012 0.728453 -0.168655
vn 0.664011 0.714404 0.220720
vn 0.664011 0.714404 0.220719
vn 0.664012 0.728453 -0.168655
vn 0.664012 0.728453 -0.168654
vn 0.363780 0.750824 -0.551297
vn 0.363779 0.750824 -0.551297
vn 0.664011 0.714404 0.220719
vn 0.664011 0.714404 0.220720
vn 0.363779 0.709137 0.603978
vn 0.363779 0.709137 0.603978
vn 0.000000 0.999350 0.036061
vn 0.000000 0.999350 0.036061
vn 0.000000 0.999350 0.036061
vn 0.118131 0.035810 -0.992352
vn -0.118131 0.035810 -0.992352
vn -0.118131 0.035810 -0.992352
vn 0.118131 0.035810 -0.992352
vn 0.254547 0.034874 -0.966431
vn 0.118131 0.035810 -0.992352
vn 0.118131 0.035810 -0.992352
vn 0.254547 0.034874 -0.966431
vn -0.118131 0.035810 -0.992352
vn -0.254547 0.034874 -0.966431
vn -0.254547 0.034874 -0.966431
vn -0.118131 0.035810 -0.992352
vn 0.837743 0.019693 -0.545710
vn 0.837743 0.019693 -0.545710
vn 0.837743 0.019693 -0.545710
vn 0.837743 0.019693 -0.545710
vn -0.837743 0.019693 -0.545710
vn -0.837743 0.019693 -0.545710
vn -0.837743 0.019693 -0.545710
vn -0.837743 0.019693 -0.545710
vn 1.000000 0.000000 0.000000
vn 1.000000 0.000000 0.000000
vn 1.000000 0.000000 0.000000
vn 1.000000 0.000000 0.000000
vn -1.000000 0.000000 0.000000
vn -1.000000 0.000000 0.000000
vn -1.000000 0.000000 0.000000
vn -1.000000 0.000000 0.000000
vn 0.837744 -0.019693 0.545709
vn 0.837744 -0.019693 0.545709
vn 0.837743 -0.019693 0.545709
vn 0.837743 -0.019693 0.545709
vn -0.837743 -0.019693 0.545710
vn -0.837743 -0.019693 0.545710
vn -0.837743 -0.019693 0.545710
vn -0.837743 -0.019693 0.545710
vn 0.118130 -0.035813 0.992352
vn 0.254547 -0.034876 0.966431
vn 0.254547 -0.034876 0.966431
vn 0.118130 -0.035813 0.992352
vn -0.254547 -0.034876 0.966431
vn -0.118130 -0.035813 0.992352
vn -0.118130 -0.035813 0.992352
vn -0.254547 -0.034876 0.966431
vn -0.118130 -0.035813 0.992352
vn 0.118130 -0.035813 0.992352
vn 0.118130 -0.035813 0.992352
vn -0.118130 -0.035813 0.992352
vn 0.000000 0.999350 0.036061
vn 0.000000 0.999350 0.036061
vn 0.000000 0.999350 0.036061
vn 0.000000 0.999350 0.036061
vn 0.000000 0.999350 0.036061
vn 0.000000 0.999350 0.036061
vn 0.000000 0.999350 0.036061
vn 0.000000 0.999350 0.036061
vn 0.000000 0.999350 0.036061
vn 0.000000 0.999350 0.036061
vn 0.000000 0.999350 0.036061
vn 0.000000 0.999350 0.036061
vn 0.000000 0.999350 0.036061
vn 0.000000 0.999350 0.036061
vn 0.000000 0.999350 0.036061
vn 0.000000 0.999350 0.036061
vn 0.000000 0.999350 0.036061
vn 0.000000 0.999350 0.036061
vn 0.000000 0.999350 0.036061
vn 0.000000 0.999350 0.036061
vn 0.000000 0.999350 0.036061
vn 0.000000 0.999350 0.036061
vn 0.000000 0.999350 0.036061
vn 0.000000 0.999350 0.036061
vn 0.000000 0.999350 0.036061
vn 0.000000 0.999350 0.036061
vn 0.000000 0.999350 0.036061
vn 0.000000 0.999350 0.036061
vn 0.000000 0.999350 0.036061
vn 0.000000 0.999350 0.036061
vn 0.000000 0.999350 0.036061
vn 0.000000 0.999350 0.036061
vn 0.000000 0.999350 0.036061
vn 0.000000 0.999350 0.036061
vn 0.000000 0.999350 0.036061
vn 0.000000 0.999350 0.036061
vn 0.000000 0.999350 0.036061
vn 0.000000 0.999350 0.036061
vn 0.000000 0.999350 0.036061
vn 0.000000 0.999350 0.036061
vn 0.000000 0.999350 0.036061
vn 0.000000 0.999350 0.036061
vn 0.000000 0.999350 0.036061
vn 0.000000 0.999350 0.036061
vn 0.000000 0.999350 0.036061
vn 0.000000 0.999350 0.036061
vn 0.000000 0.999350 0.036061
vn 0.000000 0.999350 0.036061
vn 0.000000 0.999350 0.036061
vn 0.000000 0.999350 0.036061
vn 0.000000 0.999350 0.036061
vn 0.000000 0.999350 0.036061
vn 0.000000 0.999350 0.036061
vn 0.000000 -0.844831 -0.535033
vn 0.000000 -0.844831 -0.535033
vn 0.000000 -0.844831 -0.535033
vn 0.000000 -0.844831 -0.535033
vn 0.000000 -0.750733 -0.660606
vn 0.000000 -0.509850 -0.860263
vn 0.000000 -0.509850 -0.860263
vn 0.000000 -0.750733 -0.660606
vn 0.000000 -0.509850 -0.860263
vn 0.000000 -0.219060 -0.975711
vn 0.000000 -0.219060 -0.975711
vn 0.000000 -0.509850 -0.860263
vn 0.000000 -0.219060 -0.975711
vn 0.000000 0.093172 -0.995650
vn 0.000000 0.093172 -0.995650
vn 0.000000 -0.219060 -0.975711
vn 0.000000 0.093172 -0.995650
vn 0.000000 0.396285 -0.918128
vn 0.000000 0.396285 -0.918128
vn 0.000000 0.093172 -0.995650
vn 0.000000 0.396285 -0.918128
vn 0.000000 0.660606 -0.750733
vn 0.000000 0.660606 -0.750733
vn 0.000000 0.396285 -0.918128
vn 0.000000 0.660606 -0.750733
vn 0.000000 0.860263 -0.509850
vn 0.000000 0.860263 -0.509850
vn 0.000000 0.660606 -0.750733
vn 0.000000 0.860263 -0.509850
vn 0.000000 0.975711 -0.219060
vn 0.000000 0.975711 -0.219060
vn 0.000000 0.860263 -0.509850
vn 0.000000 0.975711 -0.219060
vn 0.000000 0.995650 0.093172
vn 0.000000 0.995650 0.093172
vn 0.000000 0.975711 -0.219060
vn 0.000000 0.995650 0.093172
vn 0.000000 0.918128 0.396285
vn 0.000000 0.918128 0.396285
vn 0.000000 0.995650 0.093172
vn 0.000000 0.918128 0.396285
vn 0.000000 0.750733 0.660606
vn 0.000000 0.750733 0.660606
vn 0.000000 0.918128 0.396285
vn 0.000000 0.750733 0.660606
vn 0.000000 0.509850 0.860263
vn 0.000000 0.509850 0.860263
vn 0.000000 0.750733 0.660606
vn 0.000000 0.509850 0.860263
vn 0.000000 0.219060 0.975711
vn 0.000000 0.219060 0.975711
vn 0.000000 0.509850 0.860263
vn 0.000000 0.219060 0.975711
vn 0.000000 -0.093172 0.995650
vn 0.000000 -0.093172 0.995650
vn 0.000000 0.219060 0.975711
vn 0.000000 -0.093172 0.995650
vn 0.000000 -0.396285 0.918128
vn 0.000000 -0.396285 0.918128
vn 0.000000 -0.093172 0.995650
vn 0.000000 -0.396285 0.918128
vn 0.000000 -0.660606 0.750733
vn 0.000000 -0.660606 0.750733
vn 0.000000 -0.396285 0.918128
vn 0.000000 -0.660606 0.750733
vn 0.000000 -0.860263 0.509850
vn 0.000000 -0.860263 0.509850
vn 0.000000 -0.660606 0.750733
vn 0.000000 -0.860263 0.509850
vn 0.000000 -0.975711 0.219060
vn 0.000000 -0.975711 0.219060
vn 0.000000 -0.860263 0.509850
vn 0.000000 -0.975711 0.219060
vn 0.000000 -0.995650 -0.093171
vn 0.000000 -0.995650 -0.093171
vn 0.000000 -0.975711 0.219060
vn 0.000000 -0.995650 -0.093171
vn 0.000000 -0.918128 -0.396284
vn 0.000000 -0.918128 -0.396284
vn 0.000000 -0.995650 -0.093171
vn -1.000000 0.000000 0.000000
vn -1.000000 0.000000 0.000000
vn -1.000000 0.000000 0.000000
vn -1.000000 0.000000 0.000000
vn -1.000000 0.000000 0.000000
vn -1.000000 0.000000 0.000000
vn -1.000000 0.000000 0.000000
vn -1.000000 0.000000 0.000000
vn -1.000000 0.000000 0.000000
vn -1.000000 0.000000 0.000000
vn -1.000000 0.000000 0.000000
vn -1.000000 0.000000 0.000000
vn -1.000000 0.000000 0.000000
vn -1.000000 0.000000 0.000000
vn -1.000000 0.000000 0.000000
vn -1.000000 0.000000 0.000000
vn -1.000000 0.000000 0.000000
vn -1.000000 0.000000 0.000000
vn -1.000000 0.000000 0.000000
vn -1.000000 0.000000 0.000000
vn -1.000000 0.000000 0.000000
vn -1.000000 0.000000 0.000000
vn -1.000000 0.000000 0.000000
vn -1.000000 0.000000 0.000000
vn -1.000000 0.000000 0.000000
vn -1.000000 0.000000 0.000000
vn -1.000000 0.000000 0.000000
vn -1.000000 0.000000 0.000000
vn -1.000000 0.000000 0.000000
vn -1.000000 0.000000 0.000000
vn -1.000000 0.000000 0.000000
vn -1.000000 0.000000 0.000000
vn -1.000000 0.000000 0.000000
vn -1.000000 0.000000 0.000000
vn -1.000000 0.000000 0.000000
vn -1.000000 0.000000 0.000000
vn -1.000000 0.000000 0.000000
vn -1.000000 0.000000 0.000000
vn -1.000000 0.000000 0.000000
vn -1.000000 0.000000 0.000000
vn -1.000000 0.000000 0.000000
vn -1.000000 0.000000 0.000000
vn -1.000000 0.000000 0.000000
vn -1.000000 0.000000 0.000000
vn -1.000000 0.000000 0.000000
vn -1.000000 0.000000 0.000000
vn -1.000000 0.000000 0.000000
vn -1.000000 0.000000 0.000000
vn -1.000000 0.000000 0.000000
vn -1.000000 0.000000 0.000000
vn -1.000000 0.000000 0.000000
vn -1.000000 0.000000 0.000000
vn -1.000000 0.000000 0.000000
vn -1.000000 0.000000 0.000000
vn -1.000000 0.000000 0.000000
vn -1.000000 0.000000 0.000000
vn -1.000000 0.000000 0.000000
vn -1.000000 0.000000 0.000000
vn -1.000000 0.000000 0.000000
vn -1.000000 0.000000 0.000000
vn 1.000000 0.000000 0.000000
vn 1.000000 0.000000 0.000000
vn 1.000000 0.000000 0.000000
vn 1.000000 0.000000 0.000000
vn 1.000000 0.000000 0.000000
vn 1.000000 0.000000 0.000000
vn 1.000000 0.000000 0.000000
vn 1.000000 0.000000 0.000000
vn 1.000000 0.000000 0.000000
vn 1.000000 0.000000 0.000000
vn 1.000000 0.000000 0.000000
vn 1.000000 0.000000 0.000000
vn 1.000000 0.000000 0.000000
vn 1.000000 0.000000 0.000000
vn 1.000000 0.000000 0.000000
vn 1.000000 0.000000 0.000000
vn 1.000000 0.000000 0.000000
vn 1.000000 0.000000 0.000000
vn 1.000000 0.000000 0.000000
vn 1.000000 0.000000 0.000000
vn 1.000000 0.000000 0.000000
vn 1.000000 0.000000 0.000000
vn 1.000000 0.000000 0.000000
vn 1.000000 0.000000 0.000000
vn 1.000000 0.000000 0.000000
vn 1.000000 0.000000 0.000000
vn 1.000000 0.000000 0.000000
vn 1.000000 0.000000 0.000000
vn 1.000000 0.000000 0.000000
vn 1.000000 0.000000 0.000000
vn 1.000000 0.000000 0.000000
vn 1.000000 0.000000 0.000000
vn 1.000000 0.000000 0.000000
vn 1.000000 0.000000 0.000000
vn 1.000000 0.000000 0.000000
vn 1.000000 0.000000 0.000000
vn 1.000000 0.000000 0.000000
vn 1.000000 0.000000 0.000000
vn 1.000000 0.000000 0.000000
vn 1.000000 0.000000 0.000000
vn 1.000000 0.000000 0.000000
vn 1.000000 0.000000 0.000000
vn 1.000000 0.000000 0.000000
vn 1.000000 0.000000 0.000000
vn 1.000000 0.000000 0.000000
vn 1.000000 0.000000 0.000000
vn 1.000000 0.000000 0.000000
vn 1.000000 0.000000 0.000000
vn 1.000000 0.000000 0.000000
vn 1.000000 0.000000 0.000000
vn 1.000000 0.000000 0.000000
vn 1.000000 0.000000 0.000000
vn 1.000000 0.000000 0.000000
vn 1.000000 0.000000 0.000000
vn 1.000000 0.000000 0.000000
vn 1.000000 0.000000 0.000000
vn 1.000000 0.000000 0.000000
vn 1.000000 0.000000 0.000000
vn 1.000000 0.000000 0.000000
vn 1.000000 0.000000 0.000000
vn 0.000000 -0.844831 -0.535033
vn 0.000000 -0.844831 -0.535033
vn 0.000000 -0.844831 -0.535033
vn 0.000000 -0.844831 -0.535033
vn 0.000000 -0.750733 -0.660606
vn 0.000000 -0.509850 -0.860263
vn 0.000000 -0.509850 -0.860263
vn 0.000000 -0.750733 -0.660606
vn 0.000000 -0.509850 -0.860263
vn 0.000000 -0.219060 -0.975711
vn 0.000000 -0.219060 -0.975711
vn 0.000000 -0.509850 -0.860263
vn 0.000000 -0.219060 -0.975711
vn 0.000000 0.093172 -0.995650
vn 0.000000 0.093172 -0.995650
vn 0.000000 -0.219060 -0.975711
vn 0.000000 0.093172 -0.995650
vn 0.000000 0.396285 -0.918128
vn 0.000000 0.396285 -0.918128
vn 0.000000 0.093172 -0.995650
vn 0.000000 0.396285 -0.918128
vn 0.000000 0.660606 -0.750733
vn 0.000000 0.660606 -0.750733
vn 0.000000 0.396285 -0.918128
vn 0.000000 0.660606 -0.750733
vn 0.000000 0.860263 -0.509850
vn 0.000000 0.860263 -0.509850
vn 0.000000 0.660606 -0.750733
vn 0.000000 0.860263 -0.509850
vn 0.000000 0.975711 -0.219060
vn 0.000000 0.975711 -0.219060
vn 0.000000 0.860263 -0.509850
vn 0.000000 0.975711 -0.219060
vn 0.000000 0.995650 0.093172
vn 0.000000 0.995650 0.093172
vn 0.000000 0.975711 -0.219060
vn 0.000000 0.995650 0.093172
vn 0.000000 0.918128 0.396285
vn 0.000000 0.918128 0.396285
vn 0.000000 0.995650 0.093172
vn 0.000000 0.918128 0.396285
vn 0.000000 0.750733 0.660606
vn 0.000000 0.750733 0.660606
vn 0.000000 0.918128 0.396285
vn 0.000000 0.750733 0.660606
vn 0.000000 0.509850 0.860263
vn 0.000000 0.509850 0.860263
vn 0.000000 0.750733 0.660606
vn 0.000000 0.509850 0.860263
vn 0.000000 0.219060 0.975711
vn 0.000000 0.219060 0.975711
vn 0.000000 0.509850 0.860263
vn 0.000000 0.219060 0.975711
vn 0.000000 -0.093172 0.995650
vn 0.000000 -0.093172 0.995650
vn 0.000000 0.219060 0.975711
vn 0.000000 -0.093172 0.995650
vn 0.000000 -0.396285 0.918128
vn 0.000000 -0.396285 0.918128
vn 0.000000 -0.093172 0.995650
vn 0.000000 -0.396285 0.918128
vn 0.000000 -0.660606 0.750733
vn 0.000000 -0.660606 0.750733
vn 0.000000 -0.396285 0.918128
vn 0.000000 -0.660606 0.750733
vn 0.000000 -0.860263 0.509850
vn 0.000000 -0.860263 0.509850
vn 0.000000 -0.660606 0.750733
vn 0.000000 -0.860263 0.509850
vn 0.000000 -0.975711 0.219060
vn 0.000000 -0.975711 0.219060
vn 0.000000 -0.860263 0.509850
vn 0.000000 -0.975711 0.219060
vn 0.000000 -0.995650 -0.093171
vn 0.000000 -0.995650 -0.093171
vn 0.000000 -0.975711 0.219060
vn 0.000000 -0.995650 -0.093171
vn 0.000000 -0.918128 -0.396284
vn 0.000000 -0.918128 -0.396284
vn 0.000000 -0.995650 -0.093171
vn -1.000000 0.000000 0.000000
vn -1.000000 0.000000 0.000000
vn -1.000000 0.000000 0.000000
vn -1.000000 0.000000 0.000000
vn -1.000000 0.000000 0.000000
vn -1.000000 0.000000 0.000000
vn -1.000000 0.000000 0.000000
vn -1.000000 0.000000 0.000000
vn -1.000000 0.000000 0.000000
vn -1.000000 0.000000 0.000000
vn -1.000000 0.000000 0.000000
vn -1.000000 0.000000 0.000000
vn -1.000000 0.000000 0.000000
vn -1.000000 0.000000 0.000000
vn -1.000000 0.000000 0.000000
vn -1.000000 0.000000 0.000000
vn -1.000000 0.000000 0.000000
vn -1.000000 0.000000 0.000000
vn -1.000000 0.000000 0.000000
vn -1.000000 0.000000 0.000000
vn -1.000000 0.000000 0.000000
vn -1.000000 0.000000 0.000000
vn -1.000000 0.000000 0.000000
vn -1.000000 0.000000 0.000000
vn -1.000000 0.000000 0.000000
vn -1.000000 0.000000 0.000000
vn -1.000000 0.000000 0.000000
vn -1.000000 0.000000 0.000000
vn -1.000000 0.000000 0.000000
vn -1.000000 0.000000 0.000000
vn -1.000000 0.000000 0.000000
vn -1.000000 0.000000 0.000000
vn -1.000000 0.000000 0.000000
vn -1.000000 0.000000 0.000000
vn -1.000000 0.000000 0.000000
vn -1.000000 0.000000 0.000000
vn -1.000000 0.000000 0.000000
vn -1.000000 0.000000 0.000000
vn -1.000000 0.000000 0.000000
vn -1.000000 0.000000 0.000000
vn -1.000000 0.000000 0.000000
vn -1.000000 0.000000 0.000000
vn -1.000000 0.000000 0.000000
vn -1.000000 0.000000 0.000000
vn -1.000000 0.000000 0.000000
vn -1.000000 0.000000 0.000000
vn -1.000000 0.000000 0.000000
vn -1.000000 0.000000 0.000000
vn -1.000000 0.000000 0.000000
vn -1.000000 0.000000 0.000000
vn -1.000000 0.000000 0.000000
vn -1.000000 0.000000 0.000000
vn -1.000000 0.000000 0.000000
vn -1.000000 0.000000 0.000000
vn -1.000000 0.000000 0.000000
vn -1.000000 0.000000 0.000000
vn -1.000000 0.000000 0.000000
vn -1.000000 0.000000 0.000000
vn -1.000000 0.000000 0.000000
vn -1.000000 0.000000 0.000000
vn 1.000000 0.000000 0.000000
vn 1.000000 0.000000 0.000000
vn 1.000000 0.000000 0.000000
vn 1.000000 0.000000 0.000000
vn 1.000000 0.000000 0.000000
vn 1.000000 0.000000 0.000000
vn 1.000000 0.000000 0.000000
vn 1.000000 0.000000 0.000000
vn 1.000000 0.000000 0.000000
vn 1.000000 0.000000 0.000000
vn 1.000000 0.000000 0.000000
vn 1.000000 0.000000 0.000000
vn 1.000000 0.000000 0.000000
vn 1.000000 0.000000 0.000000
vn 1.000000 0.000000 0.000000
vn 1.000000 0.000000 0.000000
vn 1.000000 0.000000 0.000000
vn 1.000000 0.000000 0.000000
vn 1.000000 0.000000 0.000000
vn 1.000000 0.000000 0.000000
vn 1.000000 0.000000 0.000000
vn 1.000000 0.000000 0.000000
vn 1.000000 0.000000 0.000000
vn 1.000000 0.000000 0.000000
vn 1.000000 0.000000 0.000000
vn 1.000000 0.000000 0.000000
vn 1.000000 0.000000 0.000000
vn 1.000000 0.000000 0.000000
vn 1.000000 0.000000 0.000000
vn 1.000000 0.000000 0.000000
vn 1.000000 0.000000 0.000000
vn 1.000000 0.000000 0.000000
vn 1.000000 0.000000 0.000000
vn 1.000000 0.000000 0.000000
vn 1.000000 0.000000 0.000000
vn 1.000000 0.000000 0.000000
vn 1.000000 0.000000 0.000000
vn 1.000000 0.000000 0.000000
vn 1.000000 0.000000 0.000000
vn 1.000000 0.000000 0.000000
vn 1.000000 0.000000 0.000000
vn 1.000000 0.000000 0.000000
vn 1.000000 0.000000 0.000000
vn 1.000000 0.000000 0.000000
vn 1.000000 0.000000 0.000000
vn 1.000000 0.000000 0.000000
vn 1.000000 0.000000 0.000000
vn 1.000000 0.000000 0.000000
vn 1.000000 0.000000 0.000000
vn 1.000000 0.000000 0.000000
vn 1.000000 0.000000 0.000000
vn 1.000000 0.000000 0.000000
vn 1.000000 0.000000 0.000000
vn 1.000000 0.000000 0.000000
vn 1.000000 0.000000 0.000000
vn 1.000000 0.000000 0.000000
vn 1.000000 0.000000 0.000000
vn 1.000000 0.000000 0.000000
vn 1.000000 0.000000 0.000000
vn 1.000000 0.000000 0.000000
s off
g game_door:pCube35
f 2/1/1 21/2/2 28/3/3 9/4/4
f 35/5/5 36/6/6 18/7/7 19/8/8
f 15/9/9 14/10/10 33/11/11 34/12/12
f 18/7/13 17/13/14 13/14/15 14/10/16
f 19/8/17 18/7/18 14/10/19 15/9/20
f 20/15/21 19/8/22 15/9/23 16/16/24
f 11/17/25 25/18/26 24/19/27 6/20/28
f 25/18/29 26/21/30 23/22/31 24/19/32
f 22/23/33 23/22/34 26/21/35 27/24/36
f 21/2/37 22/23/38 27/24/39 28/3/40
f 1/25/41 21/2/42 2/1/43
f 3/26/44 32/27/45 1/25/46
f 5/28/47 31/29/48 32/27/49 3/26/50
f 4/30/51 31/29/52 5/28/53
f 6/20/54 24/19/55 4/30/56
f 10/31/57 25/18/58 11/17/59
f 10/31/60 12/32/61 30/33/62
f 29/34/63 30/33/64 12/32/65 8/35/66
f 7/36/67 29/34/68 8/35/69
f 9/4/70 28/3/71 7/36/72
f 28/3/73 27/24/74 29/34/75 7/36/76
f 27/24/77 26/21/78 30/33/79 29/34/80
f 10/31/81 30/33/82 26/21/83 25/18/84
f 24/19/85 23/22/86 31/29/87 4/30/88
f 32/27/89 31/29/90 23/22/91 22/23/92
f 1/25/93 32/27/94 22/23/95 21/2/96
f 37/37/97 38/38/98 40/39/99 39/40/100
f 38/38/101 37/37/102 53/41/103 54/42/104
f 39/40/105 40/39/106 56/43/107 55/44/108
f 41/45/109 42/46/110 58/47/111 57/48/112
f 42/46/113 41/45/114 43/49/115 44/50/116
f 44/50/117 43/49/118 59/51/119 60/52/120
f 45/53/121 46/54/122 54/42/123 53/41/124
f 46/54/125 45/53/126 47/55/127 48/56/128
f 48/56/129 47/55/130 57/48/131 58/47/132
f 49/57/133 50/58/134 52/59/135 51/60/136
f 50/58/137 49/57/138 55/44/139 56/43/140
f 51/60/141 52/59/142 60/52/143 59/51/144
f 60/52/145 52/59/146 17/13/147
f 5/28/148 3/26/149 37/37/150 39/40/151
f 4/61/152 5/28/153 39/40/154 55/44/155
f 3/26/156 1/62/157 53/41/158 37/37/159
f 6/63/160 4/61/161 55/44/162 49/57/163
f 1/62/164 2/64/165 45/53/166 53/41/167
f 11/65/168 6/63/169 49/57/170 51/60/171
f 2/64/172 9/66/173 47/55/174 45/53/175
f 10/67/176 11/65/177 51/60/178 59/51/179
f 9/66/180 7/68/181 57/48/182 47/55/183
f 12/69/184 10/67/185 59/51/186 43/49/187
f 7/68/188 8/70/189 41/45/190 57/48/191
f 8/70/192 12/69/193 43/49/194 41/45/195
f 58/47/196 35/5/197 19/8/198 20/15/199
f 60/52/200 17/13/201 18/7/202 36/6/203
f 58/47/204 20/15/205 48/56/206
f 13/14/207 50/58/208 56/43/209
f 14/10/210 13/14/211 56/43/212 33/11/213
f 16/16/214 15/9/215 34/12/216 54/42/217
f 46/54/218 16/16/219 54/42/220
f 17/13/221 52/59/222 50/58/223 13/14/224
f 48/56/225 20/15/226 16/16/227 46/54/228
f 33/11/229 56/43/230 40/39/231
f 34/12/232 33/11/233 40/39/234 38/38/235
f 54/42/236 34/12/237 38/38/238
f 42/46/239 35/5/240 58/47/241
f 44/50/242 36/6/243 35/5/244 42/46/245
f 60/52/246 36/6/247 44/50/248
f 61/71/249 62/72/250 82/73/251 81/74/252
f 62/72/253 63/75/254 83/76/255 82/73/256
f 63/75/257 64/77/258 84/78/259 83/76/260
f 64/77/261 65/79/262 85/80/263 84/78/264
f 65/79/265 66/81/266 86/82/267 85/80/268
f 66/81/269 67/83/270 87/84/271 86/82/272
f 67/83/273 68/85/274 88/86/275 87/84/276
f 68/85/277 69/87/278 89/88/279 88/86/280
f 69/87/281 70/89/282 90/90/283 89/88/284
f 70/89/285 71/91/286 91/92/287 90/90/288
f 71/91/289 72/93/290 92/94/291 91/92/292
f 72/93/293 73/95/294 93/96/295 92/94/296
f 73/95/297 74/97/298 94/98/299 93/96/300
f 74/97/301 75/99/302 95/100/303 94/98/304
f 75/99/305 76/101/306 96/102/307 95/100/308
f 76/101/309 77/103/310 97/104/311 96/102/312
f 77/103/313 78/105/314 98/106/315 97/104/316
f 78/105/317 79/107/318 99/108/319 98/106/320
f 79/107/321 80/109/322 100/110/323 99/108/324
f 80/109/325 61/111/326 81/112/327 100/110/328
f 62/113/329 61/111/330 101/114/331
f 63/115/332 62/113/333 101/114/334
f 64/116/335 63/115/336 101/114/337
f 65/117/338 64/116/339 101/114/340
f 66/118/341 65/117/342 101/114/343
f 67/119/344 66/118/345 101/114/346
f 68/120/347 67/119/348 101/114/349
f 69/121/350 68/120/351 101/114/352
f 70/122/353 69/121/354 101/114/355
f 71/123/356 70/122/357 101/114/358
f 72/124/359 71/123/360 101/114/361
f 73/125/362 72/124/363 101/114/364
f 74/126/365 73/125/366 101/114/367
f 75/127/368 74/126/369 101/114/370
f 76/128/371 75/127/372 101/114/373
f 77/129/374 76/128/375 101/114/376
f 78/130/377 77/129/378 101/114/379
f 79/131/380 78/130/381 101/114/382
f 80/109/383 79/131/384 101/114/385
f 61/111/386 80/109/387 101/114/388
f 81/112/389 82/132/390 102/133/391
f 82/132/392 83/134/393 102/133/394
f 83/134/395 84/135/396 102/133/397
f 84/135/398 85/136/399 102/133/400
f 85/136/401 86/137/402 102/133/403
f 86/137/404 87/138/405 102/133/406
f 87/138/407 88/139/408 102/133/409
f 88/139/410 89/140/411 102/133/412
f 89/140/413 90/141/414 102/133/415
f 90/141/416 91/142/417 102/133/418
f 91/142/419 92/143/420 102/133/421
f 92/143/422 93/144/423 102/133/424
f 93/144/425 94/145/426 102/133/427
f 94/145/428 95/146/429 102/133/430
f 95/146/431 96/147/432 102/133/433
f 96/147/434 97/148/435 102/133/436
f 97/148/437 98/149/438 102/133/439
f 98/149/440 99/150/441 102/133/442
f 99/150/443 100/110/444 102/133/445
f 100/110/446 81/112/447 102/133/448
f 103/151/449 104/152/450 124/153/451 123/154/452
f 104/152/453 105/155/454 125/156/455 124/153/456
f 105/155/457 106/157/458 126/158/459 125/156/460
f 106/157/461 107/159/462 127/160/463 126/158/464
f 107/159/465 108/161/466 128/162/467 127/160/468
f 108/161/469 109/163/470 129/164/471 128/162/472
f 109/163/473 110/165/474 130/166/475 129/164/476
f 110/165/477 111/167/478 131/168/479 130/166/480
f 111/167/481 112/169/482 132/170/483 131/168/484
f 112/169/485 113/171/486 133/172/487 132/170/488
f 113/171/489 114/173/490 134/174/491 133/172/492
f 114/173/493 115/175/494 135/176/495 134/174/496
f 115/175/497 116/177/498 136/178/499 135/176/500
f 116/177/501 117/179/502 137/180/503 136/178/504
f 117/179/505 118/181/506 138/182/507 137/180/508
f 118/181/509 119/183/510 139/184/511 138/182/512
f 119/183/513 120/185/514 140/186/515 139/184/516
f 120/185/517 121/187/518 141/188/519 140/186/520
f 121/187/521 122/189/522 142/190/523 141/188/524
f 122/189/525 103/191/526 123/192/527 142/190/528
f 104/193/529 103/191/530 143/194/531
f 105/195/532 104/193/533 143/194/534
f 106/196/535 105/195/536 143/194/537
f 107/197/538 106/196/539 143/194/540
f 108/198/541 107/197/542 143/194/543
f 109/199/544 108/198/545 143/194/546
f 110/200/547 109/199/548 143/194/549
f 111/201/550 110/200/551 143/194/552
f 112/202/553 111/201/554 143/194/555
f 113/203/556 112/202/557 143/194/558
f 114/204/559 113/203/560 143/194/561
f 115/205/562 114/204/563 143/194/564
f 116/206/565 115/205/566 143/194/567
f 117/207/568 116/206/569 143/194/570
f 118/208/571 117/207/572 143/194/573
f 119/209/574 118/208/575 143/194/576
f 120/210/577 119/209/578 143/194/579
f 121/211/580 120/210/581 143/194/582
f 122/189/583 121/211/584 143/194/585
f 103/191/586 122/189/587 143/194/588
f 123/192/589 124/212/590 144/213/591
f 124/212/592 125/214/593 144/213/594
f 125/214/595 126/215/596 144/213/597
f 126/215/598 127/216/599 144/213/600
f 127/216/601 128/217/602 144/213/603
f 128/217/604 129/218/605 144/213/606
f 129/218/607 130/219/608 144/213/609
f 130/219/610 131/220/611 144/213/612
f 131/220/613 132/221/614 144/213/615
f 132/221/616 133/222/617 144/213/618
f 133/222/619 134/223/620 144/213/621
f 134/223/622 135/224/623 144/213/624
f 135/224/625 136/225/626 144/213/627
f 136/225/628 137/226/629 144/213/630
f 137/226/631 138/227/632 144/213/633
f 138/227/634 139/228/635 144/213/636
f 139/228/637 140/229/638 144/213/639
f 140/229/640 141/230/641 144/213/642
f 141/230/643 142/190/644 144/213/645
f 142/190/646 123/192/647 144/213/648
